[
    {
        "sha1": "49c86f339e34366e338c188464409f771e92616f",
        "created_date": "2019-09-05T10:26:07.336Z",
        "size": 2339,
        "description": "",
        "thumbnail_card_url": null,
        "modified_date": "2019-09-05T10:26:07.414Z",
        "project": 33,
        "preview_url": "http://fwork.tinasoft.com.vn:9000/media/attachments/7/2/e/e/c60aa0e0751c84b3b53ff93fbfe321ab83616118ab55148363820028f67f/listuser.json",
        "owner": 20,
        "name": "ListUser.json",
        "from_comment": false,
        "object_id": 152,
        "order": 0,
        "id": 168,
        "attached_file": "attachments/7/2/e/e/c60aa0e0751c84b3b53ff93fbfe321ab83616118ab55148363820028f67f/listuser.json",
        "is_deprecated": false,
        "url": "http://fwork.tinasoft.com.vn:9000/media/attachments/7/2/e/e/c60aa0e0751c84b3b53ff93fbfe321ab83616118ab55148363820028f67f/listuser.json"
    },
    {
        "sha1": "b1640cc560fa8ad76a9889859e82db395e730f40",
        "created_date": "2019-09-05T10:26:07.363Z",
        "size": 2628,
        "description": "",
        "thumbnail_card_url": null,
        "modified_date": "2019-09-05T10:26:07.440Z",
        "project": 33,
        "preview_url": "http://fwork.tinasoft.com.vn:9000/media/attachments/4/7/b/5/cd986ed6c9068f11eeefae783dfe10be43f6051941fea53c2c98438e4576/menu.js",
        "owner": 20,
        "name": "Menu.js",
        "from_comment": false,
        "object_id": 152,
        "order": 0,
        "id": 169,
        "attached_file": "attachments/4/7/b/5/cd986ed6c9068f11eeefae783dfe10be43f6051941fea53c2c98438e4576/menu.js",
        "is_deprecated": false,
        "url": "http://fwork.tinasoft.com.vn:9000/media/attachments/4/7/b/5/cd986ed6c9068f11eeefae783dfe10be43f6051941fea53c2c98438e4576/menu.js"
    },
    {
        "sha1": "66a3a0d37be3d846e2b9d70e8db891ed868db53c",
        "created_date": "2019-09-05T10:26:07.364Z",
        "size": 683,
        "description": "",
        "thumbnail_card_url": null,
        "modified_date": "2019-09-05T10:26:07.434Z",
        "project": 33,
        "preview_url": "http://fwork.tinasoft.com.vn:9000/media/attachments/f/a/5/b/3566c91255dd69652f0bf47bbe01c4e093af0713980effa0d49bccd59828/root.css",
        "owner": 20,
        "name": "root.css",
        "from_comment": false,
        "object_id": 152,
        "order": 0,
        "id": 170,
        "attached_file": "attachments/f/a/5/b/3566c91255dd69652f0bf47bbe01c4e093af0713980effa0d49bccd59828/root.css",
        "is_deprecated": false,
        "url": "http://fwork.tinasoft.com.vn:9000/media/attachments/f/a/5/b/3566c91255dd69652f0bf47bbe01c4e093af0713980effa0d49bccd59828/root.css"
    },
    {
        "sha1": "28f0487ea989444cd51ff657191b1cfe90e4ec08",
        "created_date": "2019-09-05T10:26:07.387Z",
        "size": 4892,
        "description": "",
        "thumbnail_card_url": null,
        "modified_date": "2019-09-05T10:26:07.458Z",
        "project": 33,
        "preview_url": "http://fwork.tinasoft.com.vn:9000/media/attachments/4/0/f/c/900d44953bd1c6a6c7a78bcc0e1df66f8a1ec8c9761029277ef2dcc6a659/single.js",
        "owner": 20,
        "name": "Single.js",
        "from_comment": false,
        "object_id": 152,
        "order": 0,
        "id": 171,
        "attached_file": "attachments/4/0/f/c/900d44953bd1c6a6c7a78bcc0e1df66f8a1ec8c9761029277ef2dcc6a659/single.js",
        "is_deprecated": false,
        "url": "http://fwork.tinasoft.com.vn:9000/media/attachments/4/0/f/c/900d44953bd1c6a6c7a78bcc0e1df66f8a1ec8c9761029277ef2dcc6a659/single.js"
    },
    {
        "sha1": "21ee174308346eb51cc9c2ea78a8d2b27380f2cc",
        "created_date": "2019-09-05T10:26:07.421Z",
        "size": 2035,
        "description": "",
        "thumbnail_card_url": null,
        "modified_date": "2019-09-05T10:26:07.472Z",
        "project": 33,
        "preview_url": "http://fwork.tinasoft.com.vn:9000/media/attachments/7/9/2/2/3ea39c1a8c91d10dd6aa6ccbb4270ef5ab9f0e5c6ec91f2393330d5743ba/root.js",
        "owner": 20,
        "name": "root.js",
        "from_comment": false,
        "object_id": 152,
        "order": 0,
        "id": 172,
        "attached_file": "attachments/7/9/2/2/3ea39c1a8c91d10dd6aa6ccbb4270ef5ab9f0e5c6ec91f2393330d5743ba/root.js",
        "is_deprecated": false,
        "url": "http://fwork.tinasoft.com.vn:9000/media/attachments/7/9/2/2/3ea39c1a8c91d10dd6aa6ccbb4270ef5ab9f0e5c6ec91f2393330d5743ba/root.js"
    },
    {
        "sha1": "4121b43a521e6b0819edc9f44389cf67c1ddbd95",
        "created_date": "2019-09-05T10:26:07.446Z",
        "size": 762,
        "description": "",
        "thumbnail_card_url": null,
        "modified_date": "2019-09-05T10:26:07.488Z",
        "project": 33,
        "preview_url": "http://fwork.tinasoft.com.vn:9000/media/attachments/5/0/3/9/190fbba5870ddea145d260c08a8a107c655ac85b9e02e6ce6a4a2b3e88f7/user.js",
        "owner": 20,
        "name": "User.js",
        "from_comment": false,
        "object_id": 152,
        "order": 0,
        "id": 173,
        "attached_file": "attachments/5/0/3/9/190fbba5870ddea145d260c08a8a107c655ac85b9e02e6ce6a4a2b3e88f7/user.js",
        "is_deprecated": false,
        "url": "http://fwork.tinasoft.com.vn:9000/media/attachments/5/0/3/9/190fbba5870ddea145d260c08a8a107c655ac85b9e02e6ce6a4a2b3e88f7/user.js"
    },
    {
        "sha1": "a7ca470ae1eac743e581329362babe74cf799d5d",
        "created_date": "2019-09-05T10:26:07.846Z",
        "size": 1678,
        "description": "",
        "thumbnail_card_url": null,
        "modified_date": "2019-09-05T10:26:07.870Z",
        "project": 33,
        "preview_url": "http://fwork.tinasoft.com.vn:9000/media/attachments/a/b/5/2/d7de32d65ad65e1cce4678a7809743b7f0215f8a4e26d98481cfb2552083/admin.js",
        "owner": 20,
        "name": "Admin.js",
        "from_comment": false,
        "object_id": 152,
        "order": 0,
        "id": 174,
        "attached_file": "attachments/a/b/5/2/d7de32d65ad65e1cce4678a7809743b7f0215f8a4e26d98481cfb2552083/admin.js",
        "is_deprecated": false,
        "url": "http://fwork.tinasoft.com.vn:9000/media/attachments/a/b/5/2/d7de32d65ad65e1cce4678a7809743b7f0215f8a4e26d98481cfb2552083/admin.js"
    },
    {
        "sha1": "ba8d5891221c6b2860bd91d068be2a494a7ef1b6",
        "created_date": "2019-09-05T10:26:07.915Z",
        "size": 7132,
        "description": "",
        "thumbnail_card_url": null,
        "modified_date": "2019-09-05T10:26:07.968Z",
        "project": 33,
        "preview_url": "http://fwork.tinasoft.com.vn:9000/media/attachments/0/f/9/6/6112684d4db30ba6866c76cc54ecf63f5f4373b280bac207f6775f542190/userlist.js",
        "owner": 20,
        "name": "UserList.js",
        "from_comment": false,
        "object_id": 152,
        "order": 0,
        "id": 176,
        "attached_file": "attachments/0/f/9/6/6112684d4db30ba6866c76cc54ecf63f5f4373b280bac207f6775f542190/userlist.js",
        "is_deprecated": false,
        "url": "http://fwork.tinasoft.com.vn:9000/media/attachments/0/f/9/6/6112684d4db30ba6866c76cc54ecf63f5f4373b280bac207f6775f542190/userlist.js"
    },
    {
        "sha1": "b7737b0b3f5fa4adfc471cb8a4a93f390fac2b2f",
        "created_date": "2019-09-05T10:26:07.966Z",
        "size": 5097,
        "description": "",
        "thumbnail_card_url": null,
        "modified_date": "2019-09-05T10:26:08.011Z",
        "project": 33,
        "preview_url": "http://fwork.tinasoft.com.vn:9000/media/attachments/a/8/d/7/6c92b41942316c27414a958c2dc75e838e3cf5c163fca9e45d313693ff66/adminlist.js",
        "owner": 20,
        "name": "AdminList.js",
        "from_comment": false,
        "object_id": 152,
        "order": 0,
        "id": 175,
        "attached_file": "attachments/a/8/d/7/6c92b41942316c27414a958c2dc75e838e3cf5c163fca9e45d313693ff66/adminlist.js",
        "is_deprecated": false,
        "url": "http://fwork.tinasoft.com.vn:9000/media/attachments/a/8/d/7/6c92b41942316c27414a958c2dc75e838e3cf5c163fca9e45d313693ff66/adminlist.js"
    },
    {
        "sha1": "773d984229b1360646946d50b303e92f495e6dce",
        "created_date": "2019-09-05T10:26:07.998Z",
        "size": 5776,
        "description": "",
        "thumbnail_card_url": null,
        "modified_date": "2019-09-05T10:26:08.042Z",
        "project": 33,
        "preview_url": "http://fwork.tinasoft.com.vn:9000/media/attachments/3/a/1/f/c8a4885b5ac999736ae4029ee04859057894548c293826d1c9a7bd2830c5/history.js",
        "owner": 20,
        "name": "History.js",
        "from_comment": false,
        "object_id": 152,
        "order": 0,
        "id": 177,
        "attached_file": "attachments/3/a/1/f/c8a4885b5ac999736ae4029ee04859057894548c293826d1c9a7bd2830c5/history.js",
        "is_deprecated": false,
        "url": "http://fwork.tinasoft.com.vn:9000/media/attachments/3/a/1/f/c8a4885b5ac999736ae4029ee04859057894548c293826d1c9a7bd2830c5/history.js"
    },
    {
        "sha1": "cc823060e80f2f355d703ef3fb70f77359bf5c63",
        "created_date": "2019-09-05T10:26:08.248Z",
        "size": 1779,
        "description": "",
        "thumbnail_card_url": null,
        "modified_date": "2019-09-05T10:26:08.292Z",
        "project": 33,
        "preview_url": "http://fwork.tinasoft.com.vn:9000/media/attachments/9/3/7/2/8dfd9e1c42a1cfbb0f238bafa5475907c297e98838f15342e65d3511896b/history.json",
        "owner": 20,
        "name": "History.json",
        "from_comment": false,
        "object_id": 152,
        "order": 0,
        "id": 178,
        "attached_file": "attachments/9/3/7/2/8dfd9e1c42a1cfbb0f238bafa5475907c297e98838f15342e65d3511896b/history.json",
        "is_deprecated": false,
        "url": "http://fwork.tinasoft.com.vn:9000/media/attachments/9/3/7/2/8dfd9e1c42a1cfbb0f238bafa5475907c297e98838f15342e65d3511896b/history.json"
    },
    {
        "sha1": "82e4b48224b672ca7cbf2f97d184e407f31a8266",
        "created_date": "2019-09-05T10:26:08.782Z",
        "size": 878,
        "description": "",
        "thumbnail_card_url": null,
        "modified_date": "2019-09-05T10:26:08.806Z",
        "project": 33,
        "preview_url": "http://fwork.tinasoft.com.vn:9000/media/attachments/a/0/c/e/cbb3608de262ad3e4e9781430d20b3cff577df3b10f69500b7d568b077bd/listadmin.json",
        "owner": 20,
        "name": "ListAdmin.json",
        "from_comment": false,
        "object_id": 152,
        "order": 0,
        "id": 179,
        "attached_file": "attachments/a/0/c/e/cbb3608de262ad3e4e9781430d20b3cff577df3b10f69500b7d568b077bd/listadmin.json",
        "is_deprecated": false,
        "url": "http://fwork.tinasoft.com.vn:9000/media/attachments/a/0/c/e/cbb3608de262ad3e4e9781430d20b3cff577df3b10f69500b7d568b077bd/listadmin.json"
    }
]